{
  "images" : [
    {
      "resizing" : {
        "mode" : "9-part",
        "center" : {
          "mode" : "tile",
          "width" : 1,
          "height" : 1
        },
        "cap-insets" : {
          "bottom" : 7,
          "top" : 8,
          "right" : 7,
          "left" : 9
        }
      },
      "idiom" : "universal",
      "filename" : "button_bg_white.png",
      "scale" : "1x"
    },
    {
      "resizing" : {
        "mode" : "9-part",
        "center" : {
          "mode" : "tile",
          "width" : 1,
          "height" : 1
        },
        "cap-insets" : {
          "bottom" : 13,
          "top" : 12,
          "right" : 12,
          "left" : 12
        }
      },
      "idiom" : "universal",
      "filename" : "button_bg_white@2x.png",
      "scale" : "2x"
    },
    {
      "resizing" : {
        "mode" : "9-part",
        "center" : {
          "mode" : "tile",
          "width" : 1,
          "height" : 1
        },
        "cap-insets" : {
          "bottom" : 16,
          "top" : 14,
          "right" : 15,
          "left" : 15
        }
      },
      "idiom" : "universal",
      "filename" : "button_bg_white@3x.png",
      "scale" : "3x"
    }
  ],
  "info" : {
    "version" : 1,
    "author" : "xcode"
  }
}